%YAML 1.1
%TAG !u! tag:unity3d.com,2011:
--- !u!1045 &1
EditorBuildSettings:
  m_ObjectHideFlags: 0
  serializedVersion: 2
  m_Scenes:
  - enabled: 1
    path: Assets/Scenes/Menu.unity
    guid: 5a4614d6ad777af47932349aab919f3e
  - enabled: 1
    path: Assets/Scenes/Game.unity
    guid: 9fc0d4010bbf28b4594072e72b8655ab
  - enabled: 1
    path: Assets/Scenes/GameBuild.unity
    guid: 32dfc0cf7bda0714aa14aff12b5dfc66
  m_configObjects: {}
